^D:\VS PROJECT\PROJECT 1\PROJECT1\DEBUG\MAIN.OBJ
D:\VS PROJECT\PROJECT 1\PROJECT1\DEBUG\PROJECT1.ILK
D:\VS PROJECT\PROJECT 1\PROJECT1\DEBUG\PROJECT1.EXE
D:\VS PROJECT\PROJECT 1\PROJECT1\DEBUG\PROJECT1.PDB
